{
  "project_info": {
    "project_number": "612773904044",
    "firebase_url": "https://chatonlineflutter-f64e9.firebaseio.com",
    "project_id": "chatonlineflutter-f64e9",
    "storage_bucket": "chatonlineflutter-f64e9.appspot.com"
  },
  "client": [
    {
      "client_info": {
        "mobilesdk_app_id": "1:612773904044:android:94fba7c3f899fb42",
        "android_client_info": {
          "package_name": "com.example.chat_online"
        }
      },
      "oauth_client": [
        {
          "client_id": "612773904044-qpg6344g85pv8tkbl9rse8rnnmffvttf.apps.googleusercontent.com",
          "client_type": 1,
          "android_info": {
            "package_name": "com.example.chat_online",
            "certificate_hash": "132c3517a00d6976c101840c5a2daf5aa0e786c2"
          }
        },
        {
          "client_id": "612773904044-e5o5mq2c57u5sbhfjm78qkf4df9l1j8s.apps.googleusercontent.com",
          "client_type": 3
        }
      ],
      "api_key": [
        {
          "current_key": "AIzaSyAfarto8aQbXtQo4K1FUafs1HwMeEiwX9Y"
        }
      ],
      "services": {
        "appinvite_service": {
          "other_platform_oauth_client": [
            {
              "client_id": "612773904044-e5o5mq2c57u5sbhfjm78qkf4df9l1j8s.apps.googleusercontent.com",
              "client_type": 3
            }
          ]
        }
      }
    }
  ],
  "configuration_version": "1"
}