{
  "project_info": {
    "project_number": "1097882798485",
    "firebase_url": "https://lojaflutter-69418.firebaseio.com",
    "project_id": "lojaflutter-69418",
    "storage_bucket": "lojaflutter-69418.appspot.com"
  },
  "client": [
    {
      "client_info": {
        "mobilesdk_app_id": "1:1097882798485:android:c518cb13b6d1d592",
        "android_client_info": {
          "package_name": "br.com.brunoalves.gerente_loja"
        }
      },
      "oauth_client": [
        {
          "client_id": "1097882798485-j0p7dd3639qughtjad7km8nb0u2o5cf5.apps.googleusercontent.com",
          "client_type": 3
        }
      ],
      "api_key": [
        {
          "current_key": "AIzaSyAWG-9oEJX43LbDJhD6KWoacoApwmXFhyk"
        }
      ],
      "services": {
        "appinvite_service": {
          "other_platform_oauth_client": [
            {
              "client_id": "1097882798485-j0p7dd3639qughtjad7km8nb0u2o5cf5.apps.googleusercontent.com",
              "client_type": 3
            }
          ]
        }
      }
    },
    {
      "client_info": {
        "mobilesdk_app_id": "1:1097882798485:android:59efafcbea6db339",
        "android_client_info": {
          "package_name": "com.example.loja_virtual"
        }
      },
      "oauth_client": [
        {
          "client_id": "1097882798485-j0p7dd3639qughtjad7km8nb0u2o5cf5.apps.googleusercontent.com",
          "client_type": 3
        }
      ],
      "api_key": [
        {
          "current_key": "AIzaSyAWG-9oEJX43LbDJhD6KWoacoApwmXFhyk"
        }
      ],
      "services": {
        "appinvite_service": {
          "other_platform_oauth_client": [
            {
              "client_id": "1097882798485-j0p7dd3639qughtjad7km8nb0u2o5cf5.apps.googleusercontent.com",
              "client_type": 3
            }
          ]
        }
      }
    }
  ],
  "configuration_version": "1"
}